ID,CALL,CN,TYPE
06DDD270,F-CHKH,I,Pegase
06DDD269,F-CGOZ,Z2,Pegase
06DDD253,F-CIBO,6Z,Astir
06DD9975,F-CIPV,VS,ASK-21
06DD8943,F-CIZY,ZY,SF-25
06DDDC81,F-CGQE,AJ,Janus CM
06DDE837,F-CDTQ,TQ,ASK-13
06DDE624,F-JZTJ,TJ,AK-3
06??????,F-CEGX,GX,Ka-8
06DDBD19,F-CHRC,RC,Ventus C
